…
``` r
here::here("data", "immigrant_data_2000.sav")
```

    ## [1] "C:/Users/Diego Dulanto/OneDrive/Documents/GitHub/hw-diegodulanto/hw04_final_project/data/immigrant_data_2000.sav"

``` r
(immigrant_data <- haven::read_sav(
  here::here("data", "immigrant_data_2000.sav")
)
)
```

    ## # A tibble: 849,386 x 17
    ##       V1    V2        V3    V4 V5         V6       V7        V8      V9
    ##    <dbl> <dbl> <dbl+lbl> <dbl> <chr> <dbl+l> <dbl+lb> <dbl+lbl> <dbl+l>
    ##  1     7  2000 190 [Cub~    26 Unkn~ 2 [Mar~ 15 [Flo~ 189 [Mia~ 3 [Not~
    ##  2     4  2000 179 [Mex~    75 Mexi~ 2 [Mar~  9 [Cal~ 188 [Mer~ 3 [Not~
    ##  3    12  1999 179 [Mex~    75 Mexi~ 4 [Div~  9 [Cal~ 174 [Los~ 3 [Not~
    ##  4     7  2000 179 [Mex~    75 Mexi~ 3 [Wid~ 55 [Tex~ 260 [San~ 3 [Not~
    ##  5     5  2000 179 [Mex~    75 Mexi~ 3 [Wid~  9 [Cal~ 263 [San~ 3 [Not~
    ##  6     7  2000  62 [Chi~    15 Chin~ 1 [Sin~  9 [Cal~ 174 [Los~ 3 [Not~
    ##  7     4  2000  83 [Phi~    31 Phil~ 2 [Mar~  9 [Cal~ 266 [San~ 3 [Not~
    ##  8     8  2000 179 [Mex~    70 Mexi~ 2 [Mar~ 55 [Tex~  91 [El ~ 3 [Not~
    ##  9     3  2000  52 [Uni~    75 Unit~ 2 [Mar~ 31 [Mic~ 212 [Non~ 1 [Iss~
    ## 10    11  1999 218 [Col~    71 Colo~ 3 [Wid~ 15 [Flo~ 189 [Mia~ 3 [Not~
    ## # ... with 849,376 more rows, and 8 more variables: V10 <dbl+lbl>,
    ## #   V11 <dbl+lbl>, V12 <chr>, V13 <dbl+lbl>, V14 <dbl+lbl>, V15 <dbl>,
    ## #   V16 <dbl+lbl>, V17 <dbl+lbl>
…
print(immigrant_data)
```

    ## # A tibble: 849,386 x 17
    ##    `Month of Admis~ `Year of Admiss~ `Country of Bir~   Age `Country of Las~
    ##               <dbl>            <dbl>        <dbl+lbl> <dbl> <chr>           
    ##  1                7             2000 190 [Cuba]          26 Unknown         
    ##  2                4             2000 179 [Mexico]        75 Mexico          
    ##  3               12             1999 179 [Mexico]        75 Mexico          
    ##  4                7             2000 179 [Mexico]        75 Mexico          
    ##  5                5             2000 179 [Mexico]        75 Mexico          
    ##  6                7             2000  62 [China Peop~    15 China People Re~
    ##  7                4             2000  83 [Philippine~    31 Philippines     
    ##  8                8             2000 179 [Mexico]        70 Mexico          
    ##  9                3             2000  52 [United Kin~    75 United Kingdom  
    ## 10               11             1999 218 [Colombia]      71 Colombia        
    ## # ... with 849,376 more rows, and 12 more variables: `Marital
    ## #   Status` <dbl+lbl>, `State of Intended Residence` <dbl+lbl>, `Metropolitan
    ## #   Area of Intended Residence` <dbl+lbl>, `Labor Certification` <dbl+lbl>,
    ## #   Occupation <dbl+lbl>, Sex <dbl+lbl>, `Country of Chargeability` <chr>,
    ## #   `Type of Case` <dbl+lbl>, `Nonimmigrant class of entry` <dbl+lbl>,
    ## #   `Nonimmigrant year of entry` <dbl>, `Immigrant class of
    ## #   admission` <dbl+lbl>, `Principal vs. Derivative Class of
    ## #   Admission` <dbl+lbl>
