…
``` r
dictionary %>%
  summarize(dictionary)
```

    ## # A tibble: 36 x 4
    ##    Item   Content                                         Options         Keying
    ##    <chr>  <chr>                                           <chr>            <dbl>
    ##  1 green1 Overall, I am regarded as an environmentally c~ 1-5; SD, D, NA~      1
    ##  2 green2 I am not particularly known for protecting the~ 1-5; SD, D, NA~     -2
    ##  3 green3 My friends know I enjoy nature.                 1-5; SD, D, NA~      1
    ##  4 green4 I have a reputation for living in harmony with~ 1-5; SD, D, NA~      1
    ##  5 green5 Among people I know, I seem to be the one most~ 1-5; SD, D, NA~      1
    ##  6 comp1  I feel others' emotions.                        1-5; SD, D, NA~      1
    ##  7 comp2  I inquire about others' well-being.             1-5; SD, D, NA~      1
    ##  8 comp3  I sympathize with others' feelings.             1-5; SD, D, NA~      1
    ##  9 comp4  I take an interest in other people's lives.     1-5; SD, D, NA~      1
    ## 10 comp5  I like to do things for others.                 1-5; SD, D, NA~      1
    ## # ... with 26 more rows
…
